{
    "info": {
        "_postman_id": "04c72c2b-7918-4d9e-babf-34c3af669192",
        "name": "Tests API",
        "schema": "https://schema.getpostman.com/json/collection/v2.1.0/collection.json"
    },
    "item": [{
            "name": "Should create a user",
            "event": [{
                "listen": "test",
                "script": {
                    "exec": [
                        "pm.environment.set(\"username\", pm.response.json().username);",
                        " ",
                        "pm.test(\"Status test\", function () {",
                        "    pm.response.to.have.status(201);",
                        "});"
                    ],
                    "type": "text/javascript"
                }
            }],
            "request": {
                "method": "POST",
                "header": [],
                "body": {
                    "mode": "raw",
                    "raw": "\n{\n    \"firstname\": \"Jean\",\n      \"lastname\": \"Paul\",\n      \"password\": \"test\",\n      \"email\": \"Monemail\",\n      \"points\": 0\n}\n",
                    "options": {
                        "raw": {
                            "language": "json"
                        }
                    }
                },
                "url": {
                    "raw": "{{url}}api/users",
                    "host": [
                        "{{url}}api"
                    ],
                    "path": [
                        "users"
                    ]
                }
            },
            "response": []
        },
        {
            "name": "Should log the user",
            "event": [{
                "listen": "test",
                "script": {
                    "exec": [
                        "pm.environment.set(\"token\",pm.response.json().token);"
                    ],
                    "type": "text/javascript"
                }
            }],
            "request": {
                "method": "POST",
                "header": [],
                "body": {
                    "mode": "raw",
                    "raw": "{\n    \"username\": \"Monemail\",\n    \"password\": \"test\"\n}",
                    "options": {
                        "raw": {
                            "language": "json"
                        }
                    }
                },
                "url": {
                    "raw": "{{url}}api/login",
                    "host": [
                        "{{url}}api"
                    ],
                    "path": [
                        "login"
                    ]
                }
            },
            "response": []
        },
        {
            "name": "Check the created user",
            "event": [{
                "listen": "test",
                "script": {
                    "exec": [
                        "pm.test(\"Body matches string\", function () {",
                        "    pm.expect(pm.response.text()).to.include(\"Jean\");",
                        "});",
                        "pm.test(\"Successful GET request\", function () {",
                        "    pm.expect(pm.response.code).to.be.oneOf([200]);",
                        "});"
                    ],
                    "type": "text/javascript"
                }
            }],
            "request": {
                "auth": {
                    "type": "bearer",
                    "bearer": [{
                        "key": "token",
                        "value": "{{token}}",
                        "type": "string"
                    }]
                },
                "method": "GET",
                "header": [],
                "url": {
                    "raw": "{{url}}api/users/10",
                    "host": [
                        "{{url}}api"
                    ],
                    "path": [
                        "users",
                        "10"
                    ]
                }
            },
            "response": []
        },
        {
            "name": "Should create an assocation",
            "event": [{
                "listen": "test",
                "script": {
                    "exec": [
                        "pm.test(\"Successful POST request\", function () {",
                        "    pm.expect(pm.response.code).to.be.oneOf([201]);",
                        "});"
                    ],
                    "type": "text/javascript"
                }
            }],
            "request": {
                "method": "POST",
                "header": [],
                "body": {
                    "mode": "raw",
                    "raw": "{\n  \"name\": \"Association\",\n  \"siret\": 2379287,\n  \"email\": \"association@gmail.fr\",\n  \"phoneNumber\": \"0798787362\",\n  \"admins\": [\n    \"/api/users/10\"\n  ],\n  \"coordinates\": {\n     \"latitude\": 237.983,\n     \"longitude\": 3984.3,\n     \"address\": \"2 rue de toto\",\n     \"category\": \"Association\",\n     \"name\": \"Monassociation\",\n     \"postalCode\": 28172\n  }\n}",
                    "options": {
                        "raw": {
                            "language": "json"
                        }
                    }
                },
                "url": {
                    "raw": "{{url}}api/associations",
                    "host": [
                        "{{url}}api"
                    ],
                    "path": [
                        "associations"
                    ]
                }
            },
            "response": []
        },
        {
            "name": "Check the siret of association",
            "event": [{
                "listen": "test",
                "script": {
                    "exec": [
                        "pm.test(\"Body matches string\", function () {",
                        "    pm.expect(pm.response.text()).to.include(\"2379287\");",
                        "});",
                        "pm.test(\"Successful GET request\", function () {",
                        "    pm.expect(pm.response.code).to.be.oneOf([200]);",
                        "});"
                    ],
                    "type": "text/javascript"
                }
            }],
            "request": {
                "auth": {
                    "type": "bearer",
                    "bearer": [{
                        "key": "token",
                        "value": "{{token}}",
                        "type": "string"
                    }]
                },
                "method": "GET",
                "header": [],
                "url": {
                    "raw": "{{url}}api/association/1",
                    "host": [
                        "{{url}}api"
                    ],
                    "path": [
                        "association",
                        "1"
                    ]
                }
            },
            "response": []
        },
        {
            "name": "Check the coordinates created",
            "event": [{
                "listen": "test",
                "script": {
                    "exec": [
                        "pm.test(\"Body matches string\", function () {",
                        "    pm.expect(pm.response.text()).to.include(\"2 rue de toto\");",
                        "});",
                        "pm.test(\"Successful GET request\", function () {",
                        "    pm.expect(pm.response.code).to.be.oneOf([200]);",
                        "});"
                    ],
                    "type": "text/javascript"
                }
            }],
            "request": {
                "auth": {
                    "type": "bearer",
                    "bearer": [{
                        "key": "token",
                        "value": "{{token}}",
                        "type": "string"
                    }]
                },
                "method": "GET",
                "header": [],
                "url": {
                    "raw": "{{url}}api/coordinates",
                    "host": [
                        "{{url}}api"
                    ],
                    "path": [
                        "coordinates"
                    ]
                }
            },
            "response": []
        },
        {
            "name": "Check admins of association",
            "event": [{
                "listen": "test",
                "script": {
                    "exec": [
                        "pm.test(\"Body matches string\", function () {",
                        "    pm.expect(pm.response.text()).to.include(\"Jean\");",
                        "});",
                        "pm.test(\"Successful GET request\", function () {",
                        "    pm.expect(pm.response.code).to.be.oneOf([200]);",
                        "});"
                    ],
                    "type": "text/javascript"
                }
            }],
            "request": {
                "auth": {
                    "type": "bearer",
                    "bearer": [{
                        "key": "token",
                        "value": "{{token}}",
                        "type": "string"
                    }]
                },
                "method": "GET",
                "header": [],
                "url": {
                    "raw": "{{url}}api/association/1/admins",
                    "host": [
                        "{{url}}api"
                    ],
                    "path": [
                        "association",
                        "1",
                        "admins"
                    ]
                }
            },
            "response": []
        },
        {
            "name": "Check events heavy of association",
            "event": [{
                "listen": "test",
                "script": {
                    "exec": [
                        "",
                        "pm.test(\"Successful GET request\", function () {",
                        "    pm.expect(pm.response.code).to.be.oneOf([200]);",
                        "});"
                    ],
                    "type": "text/javascript"
                }
            }],
            "request": {
                "auth": {
                    "type": "bearer",
                    "bearer": [{
                        "key": "token",
                        "value": "{{token}}",
                        "type": "string"
                    }]
                },
                "method": "GET",
                "header": [],
                "url": {
                    "raw": "{{url}}api/association/1/events/heavy",
                    "host": [
                        "{{url}}api"
                    ],
                    "path": [
                        "association",
                        "1",
                        "events",
                        "heavy"
                    ]
                }
            },
            "response": []
        },
        {
            "name": "Check association heavy",
            "event": [{
                "listen": "test",
                "script": {
                    "exec": [
                        "",
                        "pm.test(\"Successful GET request\", function () {",
                        "    pm.expect(pm.response.code).to.be.oneOf([200]);",
                        "});",
                        "",
                        "pm.test(\"Body matches string\", function () {",
                        "    pm.expect(pm.response.text()).to.include(\"2379287\");",
                        "});"
                    ],
                    "type": "text/javascript"
                }
            }],
            "request": {
                "auth": {
                    "type": "bearer",
                    "bearer": [{
                        "key": "token",
                        "value": "{{token}}",
                        "type": "string"
                    }]
                },
                "method": "GET",
                "header": [],
                "url": {
                    "raw": "{{url}}api/association/1/heavy",
                    "host": [
                        "{{url}}api"
                    ],
                    "path": [
                        "association",
                        "1",
                        "heavy"
                    ]
                }
            },
            "response": []
        },
        {
            "name": "Check association lazy",
            "event": [{
                "listen": "test",
                "script": {
                    "exec": [
                        "",
                        "pm.test(\"Successful GET request\", function () {",
                        "    pm.expect(pm.response.code).to.be.oneOf([200]);",
                        "});",
                        ""
                    ],
                    "type": "text/javascript"
                }
            }],
            "request": {
                "auth": {
                    "type": "bearer",
                    "bearer": [{
                        "key": "token",
                        "value": "{{token}}",
                        "type": "string"
                    }]
                },
                "method": "GET",
                "header": [],
                "url": {
                    "raw": "{{url}}api/association/1/events/lazy",
                    "host": [
                        "{{url}}api"
                    ],
                    "path": [
                        "association",
                        "1",
                        "events",
                        "lazy"
                    ]
                }
            },
            "response": []
        },
        {
            "name": "Should get a list of associations",
            "event": [{
                "listen": "test",
                "script": {
                    "exec": [
                        "",
                        "pm.test(\"Successful GET request\", function () {",
                        "    pm.expect(pm.response.code).to.be.oneOf([200]);",
                        "});",
                        "pm.test(\"Body matches string\", function () {",
                        "    pm.expect(pm.response.text()).to.include(\"1\");",
                        "});"
                    ],
                    "type": "text/javascript"
                }
            }],
            "request": {
                "auth": {
                    "type": "bearer",
                    "bearer": [{
                        "key": "token",
                        "value": "{{token}}",
                        "type": "string"
                    }]
                },
                "method": "GET",
                "header": [],
                "url": {
                    "raw": "{{url}}api/associations",
                    "host": [
                        "{{url}}api"
                    ],
                    "path": [
                        "associations"
                    ]
                }
            },
            "response": []
        },
        {
            "name": "Should update name of association",
            "event": [{
                "listen": "test",
                "script": {
                    "exec": [
                        "pm.test(\"Successful POST request\", function () {",
                        "    pm.expect(pm.response.code).to.be.oneOf([200]);",
                        "});"
                    ],
                    "type": "text/javascript"
                }
            }],
            "request": {
                "auth": {
                    "type": "bearer",
                    "bearer": [{
                        "key": "token",
                        "value": "{{token}}",
                        "type": "string"
                    }]
                },
                "method": "PUT",
                "header": [],
                "body": {
                    "mode": "raw",
                    "raw": "{\n  \"name\": \"GreenEvent\"\n}",
                    "options": {
                        "raw": {
                            "language": "json"
                        }
                    }
                },
                "url": {
                    "raw": "{{url}}api/association/1/update",
                    "host": [
                        "{{url}}api"
                    ],
                    "path": [
                        "association",
                        "1",
                        "update"
                    ]
                }
            },
            "response": []
        },
        {
            "name": "Should create an item",
            "event": [{
                "listen": "test",
                "script": {
                    "exec": [
                        "pm.test(\"Successful POST request\", function () {",
                        "    pm.expect(pm.response.code).to.be.oneOf([201]);",
                        "});"
                    ],
                    "type": "text/javascript"
                }
            }],
            "request": {
                "method": "POST",
                "header": [],
                "body": {
                    "mode": "raw",
                    "raw": "{\n  \"name\": \"Casquette\",\n  \"quantity\": 7,\n  \"cost\": 3,\n  \"association\": \"/api/association/1\"\n}",
                    "options": {
                        "raw": {
                            "language": "json"
                        }
                    }
                },
                "url": {
                    "raw": "{{url}}api/items",
                    "host": [
                        "{{url}}api"
                    ],
                    "path": [
                        "items"
                    ]
                }
            },
            "response": []
        },
        {
            "name": "Check the created item",
            "event": [{
                "listen": "test",
                "script": {
                    "exec": [
                        "pm.test(\"Body matches string\", function () {",
                        "    pm.expect(pm.response.text()).to.include(\"Casquette\");",
                        "});",
                        "pm.test(\"Status code is 200\", function () {",
                        "    pm.response.to.have.status(200);",
                        "});"
                    ],
                    "type": "text/javascript"
                }
            }],
            "request": {
                "auth": {
                    "type": "bearer",
                    "bearer": [{
                        "key": "token",
                        "value": "{{token}}",
                        "type": "string"
                    }]
                },
                "method": "GET",
                "header": [],
                "url": {
                    "raw": "{{url}}api/items/1",
                    "host": [
                        "{{url}}api"
                    ],
                    "path": [
                        "items",
                        "1"
                    ]
                }
            },
            "response": []
        },
        {
            "name": "Get the list of items",
            "event": [{
                "listen": "test",
                "script": {
                    "exec": [
                        "pm.test(\"Status code is 200\", function () {",
                        "    pm.response.to.have.status(200);",
                        "});",
                        "pm.test(\"Body matches string\", function () {",
                        "    pm.expect(pm.response.text()).to.include(\"Casquette\");",
                        "});"
                    ],
                    "type": "text/javascript"
                }
            }],
            "request": {
                "auth": {
                    "type": "bearer",
                    "bearer": [{
                        "key": "token",
                        "value": "{{token}}",
                        "type": "string"
                    }]
                },
                "method": "GET",
                "header": [],
                "url": {
                    "raw": "{{url}}api/items",
                    "host": [
                        "{{url}}api"
                    ],
                    "path": [
                        "items"
                    ]
                }
            },
            "response": []
        },
        {
            "name": "Should delete an item",
            "event": [{
                "listen": "test",
                "script": {
                    "exec": [
                        "pm.test(\"Successful POST request\", function () {",
                        "    pm.expect(pm.response.code).to.be.oneOf([204]);",
                        "});"
                    ],
                    "type": "text/javascript"
                }
            }],
            "request": {
                "auth": {
                    "type": "bearer",
                    "bearer": [{
                        "key": "token",
                        "value": "{{token}}",
                        "type": "string"
                    }]
                },
                "method": "DELETE",
                "header": [],
                "url": {
                    "raw": "{{url}}api/items/1",
                    "host": [
                        "{{url}}api"
                    ],
                    "path": [
                        "items",
                        "1"
                    ]
                }
            },
            "response": []
        },
        {
            "name": "Shloud create a post",
            "event": [{
                "listen": "test",
                "script": {
                    "exec": [
                        "pm.test(\"Successful POST request\", function () {",
                        "    pm.expect(pm.response.code).to.be.oneOf([201]);",
                        "});"
                    ],
                    "type": "text/javascript"
                }
            }],
            "request": {
                "method": "POST",
                "header": [],
                "body": {
                    "mode": "raw",
                    "raw": "{\n  \"title\": \"Bocaux\",\n  \"description\": \"Les bocaux la solution\",\n  \"contenu\": \"Article sur les bocaux\",\n  \"association\": \"/api/association/1\"\n}",
                    "options": {
                        "raw": {
                            "language": "json"
                        }
                    }
                },
                "url": {
                    "raw": "{{url}}api/posts",
                    "host": [
                        "{{url}}api"
                    ],
                    "path": [
                        "posts"
                    ]
                }
            },
            "response": []
        },
        {
            "name": "Check the creation of post",
            "event": [{
                "listen": "test",
                "script": {
                    "exec": [
                        "pm.test(\"Body matches string\", function () {",
                        "    pm.expect(pm.response.text()).to.include(\"Bocaux\");",
                        "});",
                        "pm.test(\"Status code is 200\", function () {",
                        "    pm.response.to.have.status(200);",
                        "});"
                    ],
                    "type": "text/javascript"
                }
            }],
            "request": {
                "auth": {
                    "type": "bearer",
                    "bearer": [{
                        "key": "token",
                        "value": "{{token}}",
                        "type": "string"
                    }]
                },
                "method": "GET",
                "header": [],
                "url": {
                    "raw": "{{url}}api/posts/1",
                    "host": [
                        "{{url}}api"
                    ],
                    "path": [
                        "posts",
                        "1"
                    ]
                }
            },
            "response": []
        },
        {
            "name": "Should delete a post",
            "event": [{
                "listen": "test",
                "script": {
                    "exec": [
                        "pm.test(\"Successful POST request\", function () {",
                        "    pm.expect(pm.response.code).to.be.oneOf([204]);",
                        "});"
                    ],
                    "type": "text/javascript"
                }
            }],
            "request": {
                "auth": {
                    "type": "bearer",
                    "bearer": [{
                        "key": "token",
                        "value": "{{token}}",
                        "type": "string"
                    }]
                },
                "method": "DELETE",
                "header": [],
                "url": {
                    "raw": "{{url}}api/posts/1",
                    "host": [
                        "{{url}}api"
                    ],
                    "path": [
                        "posts",
                        "1"
                    ]
                }
            },
            "response": []
        },
        {
            "name": "A user should join an association",
            "event": [{
                "listen": "test",
                "script": {
                    "exec": [
                        "pm.test(\"Successful POST request\", function () {",
                        "    pm.expect(pm.response.code).to.be.oneOf([200]);",
                        "});"
                    ],
                    "type": "text/javascript"
                }
            }],
            "request": {
                "auth": {
                    "type": "bearer",
                    "bearer": [{
                        "key": "token",
                        "value": "{{token}}",
                        "type": "string"
                    }]
                },
                "method": "PUT",
                "header": [],
                "body": {
                    "mode": "raw",
                    "raw": "{\n  \"association\": \"/api/association/1\"\n}",
                    "options": {
                        "raw": {
                            "language": "json"
                        }
                    }
                },
                "url": {
                    "raw": "{{url}}api/user/10/association",
                    "host": [
                        "{{url}}api"
                    ],
                    "path": [
                        "user",
                        "10",
                        "association"
                    ]
                }
            },
            "response": []
        },
        {
            "name": "Should create an event",
            "event": [{
                "listen": "test",
                "script": {
                    "exec": [
                        "pm.test(\"Successful POST request\", function () {",
                        "    pm.expect(pm.response.code).to.be.oneOf([201]);",
                        "});"
                    ],
                    "type": "text/javascript"
                }
            }],
            "request": {
                "auth": {
                    "type": "bearer",
                    "bearer": [{
                        "key": "token",
                        "value": "{{token}}",
                        "type": "string"
                    }]
                },
                "method": "POST",
                "header": [],
                "body": {
                    "mode": "raw",
                    "raw": "{\n  \"title\": \"Footing\",\n  \"date\": \"2021-11-22T21:05:24.056Z\",\n  \"quota\": 30,\n  \"cost\": 0,\n  \"description\": \"Footing de ramassage\",\n  \"coordinates\": {\n    \"latitude\": 23.9,\n    \"longitude\": 2093.3,\n    \"address\": \"10 rue de toto\",\n    \"category\": \"Event\",\n    \"name\": \"Evenement\",\n    \"postalCode\": 19283\n  },\n  \"association\": \"/api/association/1\"\n}",
                    "options": {
                        "raw": {
                            "language": "json"
                        }
                    }
                },
                "url": {
                    "raw": "{{url}}api/events",
                    "host": [
                        "{{url}}api"
                    ],
                    "path": [
                        "events"
                    ]
                }
            },
            "response": []
        },
        {
            "name": "Check the creation of event",
            "event": [{
                "listen": "test",
                "script": {
                    "exec": [
                        "pm.test(\"Body matches string\", function () {",
                        "    pm.expect(pm.response.text()).to.include(\"Footing\");",
                        "});",
                        "pm.test(\"Status code is 200\", function () {",
                        "    pm.response.to.have.status(200);",
                        "});"
                    ],
                    "type": "text/javascript"
                }
            }],
            "request": {
                "auth": {
                    "type": "bearer",
                    "bearer": [{
                        "key": "token",
                        "value": "{{token}}",
                        "type": "string"
                    }]
                },
                "method": "GET",
                "header": [],
                "url": {
                    "raw": "{{url}}api/events",
                    "host": [
                        "{{url}}api"
                    ],
                    "path": [
                        "events"
                    ]
                }
            },
            "response": []
        },
        {
            "name": "Should delete an event",
            "event": [{
                "listen": "test",
                "script": {
                    "exec": [
                        "pm.test(\"Successful POST request\", function () {",
                        "    pm.expect(pm.response.code).to.be.oneOf([204]);",
                        "});"
                    ],
                    "type": "text/javascript"
                }
            }],
            "request": {
                "auth": {
                    "type": "bearer",
                    "bearer": [{
                        "key": "token",
                        "value": "{{token}}",
                        "type": "string"
                    }]
                },
                "method": "DELETE",
                "header": [],
                "url": {
                    "raw": "{{url}}api/events/1",
                    "host": [
                        "{{url}}api"
                    ],
                    "path": [
                        "events",
                        "1"
                    ]
                }
            },
            "response": []
        },
        {
            "name": "Should delete an association",
            "event": [{
                "listen": "test",
                "script": {
                    "exec": [
                        "pm.test(\"Successful POST request\", function () {",
                        "    pm.expect(pm.response.code).to.be.oneOf([204]);",
                        "});"
                    ],
                    "type": "text/javascript"
                }
            }],
            "request": {
                "auth": {
                    "type": "bearer",
                    "bearer": [{
                        "key": "token",
                        "value": "{{token}}",
                        "type": "string"
                    }]
                },
                "method": "DELETE",
                "header": [],
                "url": {
                    "raw": "{{url}}api/associations/1",
                    "host": [
                        "{{url}}api"
                    ],
                    "path": [
                        "associations",
                        "1"
                    ]
                }
            },
            "response": []
        },
        {
            "name": "Should delete a user",
            "event": [{
                "listen": "test",
                "script": {
                    "exec": [
                        "pm.test(\"Successful POST request\", function () {",
                        "    pm.expect(pm.response.code).to.be.oneOf([204]);",
                        "});"
                    ],
                    "type": "text/javascript"
                }
            }],
            "request": {
                "auth": {
                    "type": "bearer",
                    "bearer": [{
                        "key": "token",
                        "value": "{{token}}",
                        "type": "string"
                    }]
                },
                "method": "DELETE",
                "header": [],
                "url": {
                    "raw": "{{url}}api/users/10",
                    "host": [
                        "{{url}}api"
                    ],
                    "path": [
                        "users",
                        "10"
                    ]
                }
            },
            "response": []
        }
    ]
}