{
	"id": "e5e67876-e759-4827-ba6d-64d9e8c5993f",
	"name": "TEST API ENV",
	"values": [
		{
			"key": "url",
			"value": "http://localhost:8000/",
			"enabled": true
		},
		{
			"key": "username",
			"value": "",
			"enabled": true
		}
	],
	"_postman_variable_scope": "environment",
	"_postman_exported_at": "2021-11-04T14:41:08.114Z",
	"_postman_exported_using": "Postman/8.12.0"
}